lab_class2/simulation/qsim/multi.msim.vcd
$comment
	File created using the following command:
		vcd file multi.msim.vcd -direction
$end
$date
	Mon Oct 21 09:58:32 2019
$end
$version
	ModelSim Version 10.5b
$end
$timescale
	1ps
$end

$scope module thirtytwobit_vlg_vec_tst $end
$var reg 32 ! A [31:0] $end
$var reg 32 " B [31:0] $end
$var reg 1 # S $end
$var wire 1 $ Y [31] $end
$var wire 1 % Y [30] $end
$var wire 1 & Y [29] $end
$var wire 1 ' Y [28] $end
$var wire 1 ( Y [27] $end
$var wire 1 ) Y [26] $end
$var wire 1 * Y [25] $end
$var wire 1 + Y [24] $end
$var wire 1 , Y [23] $end
$var wire 1 - Y [22] $end
$var wire 1 . Y [21] $end
$var wire 1 / Y [20] $end
$var wire 1 0 Y [19] $end
$var wire 1 1 Y [18] $end
$var wire 1 2 Y [17] $end
$var wire 1 3 Y [16] $end
$var wire 1 4 Y [15] $end
$var wire 1 5 Y [14] $end
$var wire 1 6 Y [13] $end
$var wire 1 7 Y [12] $end
$var wire 1 8 Y [11] $end
$var wire 1 9 Y [10] $end
$var wire 1 : Y [9] $end
$var wire 1 ; Y [8] $end
$var wire 1 < Y [7] $end
$var wire 1 = Y [6] $end
$var wire 1 > Y [5] $end
$var wire 1 ? Y [4] $end
$var wire 1 @ Y [3] $end
$var wire 1 A Y [2] $end
$var wire 1 B Y [1] $end
$var wire 1 C Y [0] $end

$scope module i1 $end
$var wire 1 D gnd $end
$var wire 1 E vcc $end
$var wire 1 F unknown $end
$var tri1 1 G devclrn $end
$var tri1 1 H devpor $end
$var tri1 1 I devoe $end
$var wire 1 J ~QUARTUS_CREATED_GND~I_combout $end
$var wire 1 K ~QUARTUS_CREATED_UNVM~~busy $end
$var wire 1 L ~QUARTUS_CREATED_ADC1~~eoc $end
$var wire 1 M ~QUARTUS_CREATED_ADC2~~eoc $end
$var wire 1 N Y[31]~output_o $end
$var wire 1 O Y[30]~output_o $end
$var wire 1 P Y[29]~output_o $end
$var wire 1 Q Y[28]~output_o $end
$var wire 1 R Y[27]~output_o $end
$var wire 1 S Y[26]~output_o $end
$var wire 1 T Y[25]~output_o $end
$var wire 1 U Y[24]~output_o $end
$var wire 1 V Y[23]~output_o $end
$var wire 1 W Y[22]~output_o $end
$var wire 1 X Y[21]~output_o $end
$var wire 1 Y Y[20]~output_o $end
$var wire 1 Z Y[19]~output_o $end
$var wire 1 [ Y[18]~output_o $end
$var wire 1 \ Y[17]~output_o $end
$var wire 1 ] Y[16]~output_o $end
$var wire 1 ^ Y[15]~output_o $end
$var wire 1 _ Y[14]~output_o $end
$var wire 1 ` Y[13]~output_o $end
$var wire 1 a Y[12]~output_o $end
$var wire 1 b Y[11]~output_o $end
$var wire 1 c Y[10]~output_o $end
$var wire 1 d Y[9]~output_o $end
$var wire 1 e Y[8]~output_o $end
$var wire 1 f Y[7]~output_o $end
$var wire 1 g Y[6]~output_o $end
$var wire 1 h Y[5]~output_o $end
$var wire 1 i Y[4]~output_o $end
$var wire 1 j Y[3]~output_o $end
$var wire 1 k Y[2]~output_o $end
$var wire 1 l Y[1]~output_o $end
$var wire 1 m Y[0]~output_o $end
$var wire 1 n B[31]~input_o $end
$var wire 1 o S~input_o $end
$var wire 1 p A[31]~input_o $end
$var wire 1 q inst9|inst3|inst3~0_combout $end
$var wire 1 r A[30]~input_o $end
$var wire 1 s B[30]~input_o $end
$var wire 1 t inst9|inst2|inst3~0_combout $end
$var wire 1 u B[29]~input_o $end
$var wire 1 v A[29]~input_o $end
$var wire 1 w inst9|inst1|inst3~0_combout $end
$var wire 1 x A[28]~input_o $end
$var wire 1 y B[28]~input_o $end
$var wire 1 z inst9|inst|inst3~0_combout $end
$var wire 1 { A[27]~input_o $end
$var wire 1 | B[27]~input_o $end
$var wire 1 } inst8|inst3|inst3~0_combout $end
$var wire 1 ~ A[26]~input_o $end
$var wire 1 !! B[26]~input_o $end
$var wire 1 "! inst8|inst2|inst3~0_combout $end
$var wire 1 #! A[25]~input_o $end
$var wire 1 $! B[25]~input_o $end
$var wire 1 %! inst8|inst1|inst3~0_combout $end
$var wire 1 &! A[24]~input_o $end
$var wire 1 '! B[24]~input_o $end
$var wire 1 (! inst8|inst|inst3~0_combout $end
$var wire 1 )! A[23]~input_o $end
$var wire 1 *! B[23]~input_o $end
$var wire 1 +! inst7|inst3|inst3~0_combout $end
$var wire 1 ,! B[22]~input_o $end
$var wire 1 -! A[22]~input_o $end
$var wire 1 .! inst7|inst2|inst3~0_combout $end
$var wire 1 /! B[21]~input_o $end
$var wire 1 0! A[21]~input_o $end
$var wire 1 1! inst7|inst1|inst3~0_combout $end
$var wire 1 2! B[20]~input_o $end
$var wire 1 3! A[20]~input_o $end
$var wire 1 4! inst7|inst|inst3~0_combout $end
$var wire 1 5! B[19]~input_o $end
$var wire 1 6! A[19]~input_o $end
$var wire 1 7! inst6|inst3|inst3~0_combout $end
$var wire 1 8! B[18]~input_o $end
$var wire 1 9! A[18]~input_o $end
$var wire 1 :! inst6|inst2|inst3~0_combout $end
$var wire 1 ;! A[17]~input_o $end
$var wire 1 <! B[17]~input_o $end
$var wire 1 =! inst6|inst1|inst3~0_combout $end
$var wire 1 >! A[16]~input_o $end
$var wire 1 ?! B[16]~input_o $end
$var wire 1 @! inst6|inst|inst3~0_combout $end
$var wire 1 A! A[15]~input_o $end
$var wire 1 B! B[15]~input_o $end
$var wire 1 C! inst3|inst3|inst3~0_combout $end
$var wire 1 D! A[14]~input_o $end
$var wire 1 E! B[14]~input_o $end
$var wire 1 F! inst3|inst2|inst3~0_combout $end
$var wire 1 G! B[13]~input_o $end
$var wire 1 H! A[13]~input_o $end
$var wire 1 I! inst3|inst1|inst3~0_combout $end
$var wire 1 J! B[12]~input_o $end
$var wire 1 K! A[12]~input_o $end
$var wire 1 L! inst3|inst|inst3~0_combout $end
$var wire 1 M! A[11]~input_o $end
$var wire 1 N! B[11]~input_o $end
$var wire 1 O! inst2|inst3|inst3~0_combout $end
$var wire 1 P! A[10]~input_o $end
$var wire 1 Q! B[10]~input_o $end
$var wire 1 R! inst2|inst2|inst3~0_combout $end
$var wire 1 S! A[9]~input_o $end
$var wire 1 T! B[9]~input_o $end
$var wire 1 U! inst2|inst1|inst3~0_combout $end
$var wire 1 V! B[8]~input_o $end
$var wire 1 W! A[8]~input_o $end
$var wire 1 X! inst2|inst|inst3~0_combout $end
$var wire 1 Y! B[7]~input_o $end
$var wire 1 Z! A[7]~input_o $end
$var wire 1 [! inst1|inst3|inst3~0_combout $end
$var wire 1 \! A[6]~input_o $end
$var wire 1 ]! B[6]~input_o $end
$var wire 1 ^! inst1|inst2|inst3~0_combout $end
$var wire 1 _! B[5]~input_o $end
$var wire 1 `! A[5]~input_o $end
$var wire 1 a! inst1|inst1|inst3~0_combout $end
$var wire 1 b! B[4]~input_o $end
$var wire 1 c! A[4]~input_o $end
$var wire 1 d! inst1|inst|inst3~0_combout $end
$var wire 1 e! B[3]~input_o $end
$var wire 1 f! A[3]~input_o $end
$var wire 1 g! inst|inst3|inst3~0_combout $end
$var wire 1 h! B[2]~input_o $end
$var wire 1 i! A[2]~input_o $end
$var wire 1 j! inst|inst2|inst3~0_combout $end
$var wire 1 k! B[1]~input_o $end
$var wire 1 l! A[1]~input_o $end
$var wire 1 m! inst|inst1|inst3~0_combout $end
$var wire 1 n! A[0]~input_o $end
$var wire 1 o! B[0]~input_o $end
$var wire 1 p! inst|inst|inst3~0_combout $end
$upscope $end
$upscope $end
$enddefinitions $end
#0
$dumpvars
b10101101011111100010010001111110 !
b11010010110010101011111011011 "
0#
0C
1B
1A
1@
1?
1>
1=
0<
0;
0:
19
08
07
16
05
04
03
12
11
10
1/
1.
1-
0,
1+
0*
1)
1(
0'
1&
0%
1$
0D
1E
xF
1G
1H
1I
0J
zK
zL
zM
1N
0O
1P
0Q
1R
1S
0T
1U
0V
1W
1X
1Y
1Z
1[
1\
0]
0^
0_
1`
0a
0b
1c
0d
0e
0f
1g
1h
1i
1j
1k
1l
0m
0n
0o
1p
1q
0r
0s
0t
0u
1v
1w
0x
1y
0z
1{
1|
1}
1~
0!!
1"!
0#!
1$!
0%!
1&!
0'!
1(!
0)!
0*!
0+!
1,!
1-!
1.!
0/!
10!
11!
12!
13!
14!
15!
16!
17!
08!
19!
1:!
1;!
0<!
1=!
0>!
1?!
0@!
0A!
0B!
0C!
0D!
1E!
0F!
0G!
1H!
1I!
1J!
0K!
0L!
0M!
0N!
0O!
1P!
1Q!
1R!
0S!
1T!
0U!
1V!
0W!
0X!
1Y!
0Z!
0[!
1\!
1]!
1^!
0_!
1`!
1a!
1b!
1c!
1d!
1e!
1f!
1g!
0h!
1i!
1j!
1k!
1l!
1m!
0n!
1o!
0p!
$end
#500000
b101101011111100010010001111110 !
b1101011111100010010001111110 !
b1100011111100010010001111110 !
b1100011011100010010001111110 !
b1100011011101010010001111110 !
b1100011011101110010001111110 !
b1100011011101110110001111110 !
b1100011011101110100001111110 !
b1100011011101110101001111110 !
b1100011011101110101000111110 !
b1100011011101110101000101110 !
b1100011011101110101000101100 !
b1011010010110010101011111011011 "
b1111010010110010101011111011011 "
b1111110010110010101011111011011 "
b1111100010110010101011111011011 "
b1111100000110010101011111011011 "
b1111100001110010101011111011011 "
b1111100001010010101011111011011 "
b1111100001000010101011111011011 "
b1111100001000000101011111011011 "
b1111100001000000101111111011011 "
b1111100001000000101110111011011 "
b1111100001000000101110101011011 "
b1111100001000000101110101001011 "
b1111100001000000101110101001111 "
0p
0v
0&!
03!
1A!
1D!
1M!
0P!
1S!
0\!
0c!
0l!
1s
1u
1!!
0$!
0,!
1/!
02!
05!
0?!
1N!
0T!
0Y!
0b!
1h!
0q
0w
0(!
04!
1C!
1F!
1O!
0R!
1U!
0^!
0d!
0m!
0l
0i
0g
1d
0c
1b
1_
1^
0Y
0U
0P
0N
0$
0&
0+
0/
14
15
18
09
1:
0=
0?
0B
#1000000
b1001100011011101110101000101100 !
b1000100011011101110101000101100 !
b1000110011011101110101000101100 !
b1000110001011101110101000101100 !
b1000110000011101110101000101100 !
b1000110000001101110101000101100 !
b1000110000000101110101000101100 !
b1000110000000111110101000101100 !
b1000110000000111111101000101100 !
b1000110000000111111101100101100 !
b1000110000000111111101110101100 !
b1000110000000111111101110101000 !
b1000110000000111111101110101001 !
b11111100001000000101110101001111 "
b11110100001000000101110101001111 "
b11110101001000000101110101001111 "
b11110101001000100101110101001111 "
b11110101001000101101110101001111 "
b11110101001000101111110101001111 "
b11110101001000101111110101101111 "
b11110101001000101111110101101101 "
b11110101001000101111110101101100 "
b1100110000000111111101110101001 !
b1100110000000111011101110101001 !
b1100110000000111011111110101001 !
b1100110000000111011111111101001 !
b1100110000000111011111111111001 !
b10110101001000101111110101101100 "
b10110101011000101111110101101100 "
b10110101011000101111110101111100 "
b10110101011000101111110101111000 "
1r
1v
0{
1#!
0-!
00!
06!
09!
1>!
0D!
1K!
1P!
1W!
1Z!
1\!
1c!
0i!
1n!
1n
0s
0|
1'!
1,!
1<!
1B!
1G!
1_!
1b!
0h!
0k!
0o!
1t
1w
0}
1%!
0.!
01!
07!
0:!
1@!
0F!
1L!
1R!
1X!
1[!
1^!
1d!
0j!
1p!
1m
0k
1i
1g
1f
1e
1c
1a
0_
1]
0[
0Z
0X
0W
1T
0R
1P
1O
1%
1&
0(
1*
0-
0.
00
01
13
05
17
19
1;
1<
1=
1?
0A
1C
#1500000
b1110110000000111011111111111001 !
b1110110100000111011111111111001 !
b1110110100000111001111111111001 !
b1110110100000111001111111110001 !
b10100101011000101111110101111000 "
b10100101111000101111110101111000 "
b10100101111001101111110101111000 "
b10100101111001101110110101111000 "
b10100101111001101110110101110000 "
b1110111100000111001111111110001 !
b1110111100000110001111111110001 !
b1110111100000110001011111110001 !
b1110111100000110001010111110001 !
b1110111100000110001010111110011 !
b10100111111001101110110101110000 "
b10100111110001101110110101110000 "
b10100111110101101110110101110000 "
b110111100000110001010111110011 !
b110111100010110001010111110011 !
b110111100011110001010111110011 !
b110111100011100001010111110011 !
b110111100011100000010111110011 !
b110111100011100000010101110011 !
b100111110101101110110101110000 "
b101111110101101110110101110000 "
b101111110101001110110101110000 "
b101111110101000110110101110000 "
b101111110101000110110101010000 "
b101111110101000110110101010010 "
b110111100011100100010101110011 !
b110111100011100100000101110011 !
b110111100011100100000101100011 !
b101111100101000110110101010010 "
0r
1x
1&!
1)!
16!
19!
0>!
0A!
1D!
0H!
0K!
0M!
0P!
0S!
0Z!
0c!
0f!
1l!
0n
0y
1|
1$!
1*!
0,!
0/!
12!
18!
0<!
0B!
0J!
0_!
0e!
1k!
0t
1z
1(!
1+!
17!
1:!
0@!
0C!
1F!
0I!
0L!
0O!
0R!
0U!
0[!
0d!
0g!
1m!
1l
0j
0i
0f
0d
0c
0b
0a
0`
1_
0^
0]
1[
1Z
1V
1U
1Q
0O
0%
1'
1+
1,
10
11
03
04
15
06
07
08
09
0:
0<
0?
0@
1B
#2000000
b110011100011100100000101100011 !
b110011100011000100000101100011 !
b101111100101000110100101010010 "
b101111100101000110100001010010 "
b110011100111000100000101100011 !
b1111100101000110100001010010 "
b1111100111000110100001010010 "
b1111100111010110100001010010 "
b1111100111010110000001010010 "
b1111100111010110000011010010 "
b111011100111000100000101100011 !
b111001100111000100000101100011 !
b111001110111000100000101100011 !
b111001111111000100000101100011 !
b111001111111000100000101100010 !
b11001111111000100000101100010 !
b1111100111010110000011010110 "
b11001011111000100000101100010 !
b11001011111000100000101101010 !
b1111000111010110000011010110 "
b1111000111010111000011010110 "
b1111000111010111000011011110 "
b11001011111000100100101101010 !
b11001011111000100100101101000 !
b1111000011010111000011011110 "
b1011001011111000100100101101000 !
b1011001011101000100100101101000 !
b111000011010111000011011110 "
b111000011110111000011011110 "
b111000011111111000011011110 "
b1011001011101000100110101101000 !
b111010011111111000011011110 "
1r
0v
1{
0~
0#!
0)!
1-!
10!
13!
06!
0;!
1M!
1P!
1f!
0l!
0n!
0u
0|
0*!
1,!
02!
15!
1<!
1?!
1B!
1J!
0N!
0Q!
0V!
1Y!
1e!
1h!
1t
0w
1}
0"!
0%!
0+!
1.!
11!
14!
07!
0=!
1O!
1R!
1g!
0m!
0p!
0m
0l
1j
1c
1b
0\
0Z
1Y
1X
1W
0V
0T
0S
1R
0P
1O
1%
0&
1(
0)
0*
0,
1-
1.
1/
00
02
18
19
1@
0B
0C
#2500000
b111010011111011000011011110 "
1#
b11011001011101000100110101101000 !
b111010011111011001011011110 "
b111010011111001001011011110 "
b111010011111001001011011111 "
b111010011111001001011001111 "
b11001001011101000100110101101000 !
b11001001011101000110110101101000 !
b10111010011111001001011001111 "
b10111010010111001001011001111 "
b11001000011101000110110101101000 !
b11001000011101000110111101101000 !
b10101010010111001001011001111 "
b11001000011101010110111101101000 !
b11001000011101010110111111101000 !
b10101010010111001001011101111 "
b11001000011101010010111111101000 !
b11001000011101010010111111111000 !
b11001000011101110010111111111000 !
b10101010010111001001111101111 "
b11001000011001110010111111111000 !
b110101010010111001001111101111 "
b110101010000111001001111101111 "
b110101010000101001001111101111 "
b110101010000101001101111101111 "
b110101010000101001101101101111 "
b11000000011001110010111111111000 !
b11000010011001110010111111111000 !
b11000010001001110010111111111000 !
b11000010001001110010111111111001 !
b11000010101001110010111111111001 !
b11000010101001110010111111111011 !
b110101010100101001101101101111 "
b10000010101001110010111111111011 !
b10000010101001110010101111111011 !
b110101000100101001101101101111 "
1u
1y
0$!
0,!
12!
05!
08!
0?!
0E!
0G!
1N!
1T!
1V!
0Y!
1_!
0b!
1o!
1p
0r
0x
0{
1#!
0&!
1)!
0-!
03!
1;!
1>!
0D!
1H!
0P!
1S!
1Z!
1c!
1l!
1n!
1o
1w
0.!
0:!
0F!
1U!
1p!
0t
0}
1=!
0R!
1m!
1j!
1L!
1C!
01!
1"!
1S
0X
1^
1a
1k
1l
0c
1\
0R
0O
1m
1d
0_
0[
0W
1P
1&
0-
01
05
1:
1C
0%
0(
12
09
1B
1A
17
14
0.
1)
#3000000
b10000010101001110010101111011011 !
b110101000100101001101100101111 "
b110001000100101001101100101111 "
b10000010101001110010101011011011 !
b10000010101001110010101011011111 !
b110001001100101001101100101111 "
b10000010101001110011101011011111 !
b110001001100101001111100101111 "
b110001001100101001111100100111 "
b10000010101011110011101011011111 !
b110001001100100001111100100111 "
b110001001100100001110100100111 "
b110001001100100001110100100110 "
b10010010101011110011101011011111 !
b10010010101011110001101011011111 !
b100001001100100001110100100110 "
b10010010101011110001100011011111 !
b10010010101011100001100011011111 !
b10010010101011100001100001011111 !
b100001001100100001110100000110 "
b10010010101011100101100001011111 !
b10010010101011100101100001001111 !
b10010010101011000101100001001111 !
b10010010101111000101100001001111 !
b1001100100001110100000110 "
b1001110100001110100000110 "
b1001110100001110110000110 "
b10011010101111000101100001001111 !
b10011000101111000101100001001111 !
b10011000111111000101100001001111 !
b10011000111111000101100001001110 !
b10011000111111000101100001001100 !
b11011000111111000101100001001100 !
1r
1x
1{
0#!
1-!
13!
16!
0;!
0>!
1D!
0H!
1K!
0S!
0W!
0Z!
0`!
0c!
1i!
0l!
0n!
0u
0y
0!!
1/!
15!
0B!
1Q!
0T!
1Y!
0]!
0_!
0e!
0o!
0z
17!
0U!
1[!
0a!
0p!
0w
0"!
11!
0C!
1R!
0^!
0g!
0j
0g
1c
0^
1X
0S
0P
0m
0h
1f
0d
1Z
0Q
0'
10
0:
1<
0>
0C
0&
0)
1.
04
19
0=
0@
#3500000
b1110100001110110000110 "
b1000000001110100001110110000110 "
b11011000111111001101100001001100 !
b11011000111110001101100001001100 !
b11000000001110100001110110000110 "
b11000000001110100001110110000100 "
b11011000111110001101000001001100 !
b11001000001110100001110110000100 "
b11001000001110000001110110000100 "
0#
b1011000111110001101000001001100 !
b11001000001110000001110110010100 "
b11001000001111000001110110010100 "
b1011001111110001101000001001100 !
b11001010001111000001110110010100 "
b1011001111110001101000001101100 !
b11001010001111000001110111010100 "
b11001110001111000001110111010100 "
b1011001111110001101000101101100 !
b11001110000111000001110111010100 "
b11001110000111000001110111011100 "
b1011001111100001101000101101100 !
b11001110000111000001110111011101 "
b11011110000111000001110111011101 "
b1011001111100001101001101101100 !
b1011001111100011101001101101100 !
b1011001111100011101001111101100 !
b11011110000111000001110111111101 "
b1011001111100011101001111111100 !
b11111110000111000001110111111101 "
b1011001101100011101001111111100 !
b1011001101100011101001111111110 !
0o
1n
1s
1u
1y
1|
1!!
1$!
0'!
0/!
18!
0<!
1]!
1_!
1b!
1e!
0k!
1o!
0p
1&!
0-!
06!
09!
1>!
1A!
0M!
1S!
1W!
1Z!
1`!
1c!
1l!
1g!
1d!
1a!
1^!
1U!
0R!
0O!
1F!
1C!
1@!
0=!
07!
1+!
1}
1z
1t
1O
1Q
1R
1V
0Z
0\
1]
1^
1_
0b
0c
1d
1g
1h
1i
1j
1@
1?
1>
1=
1:
09
08
15
14
13
02
00
1,
1(
1'
1%
#4000000
b1011101101100011101001111111110 !
b1011101100100011101001111111110 !
b11111110000111000000110111111101 "
b11111110000111000100110111111101 "
b11111110000111000110110111111101 "
b11111110000111000110110011111101 "
b11111110000111000110010011111101 "
b11111110010111000110010011111101 "
b1011101100100011101001111111010 !
b11111110010111000110000011111101 "
b11111110010111001110000011111101 "
b11111110010111001110001011111101 "
b1001101100100011101001111111010 !
b1001101100100011001001111111010 !
b1001101100000011001001111111010 !
b11111110010101001110001011111101 "
b1000101100000011001001111111010 !
b10111110010101001110001011111101 "
b1000101100000010001001111111010 !
b111110010101001110001011111101 "
b111110010101001110001011111111 "
b1000101100000010001101111111010 !
b110110010101001110001011111111 "
b110110010101101110001011111111 "
b11000101100000010001101111111010 !
b110110010101101110001011101111 "
b110110010100101110001011101111 "
b11000100100000010001101111111010 !
b110100010100101110001011101111 "
b110100010100101110001011100111 "
b11000100100010010001101111111010 !
b11000100100010000001101111111010 !
b11000100100010000001101101111010 !
b11000100100010000001101101101010 !
1p
0x
0{
1~
0&!
00!
03!
16!
0>!
0A!
0D!
1M!
0Z!
0c!
0i!
0n
0s
0|
0$!
1,!
05!
08!
1<!
1B!
1E!
1G!
0J!
0N!
0Q!
1T!
0V!
0b!
0e!
1k!
1q
0z
0}
1"!
0(!
01!
04!
17!
0@!
0C!
0F!
1O!
0[!
0d!
0j!
0k
0i
0f
1b
0_
0^
0]
1Z
0Y
0X
0U
1S
0R
0Q
1N
1$
0'
0(
1)
0+
0.
0/
10
03
04
05
18
0<
0?
0A
#4500000
b110100010100101110001011100011 "
b11000100100010000001101101100010 !
b110100110100101110001011100011 "
b110100110100111110001011100011 "
b11000100000010000001101101100010 !
b110100110000111110001011100011 "
b11000100000010000000101101100010 !
b110100110000111110001001100011 "
b11000100000010000000101101100011 !
b10000100000010000000101101100011 !
b110101110000111110001001100011 "
b10000100000010000000101101000011 !
b110101110000111110001000100011 "
b110001110000111110001000100011 "
b110001111000111110001000100011 "
b110001111000111110001000100010 "
b100001111000111110001000100010 "
b10000100000010000000100101000011 !
b100001111000111110001000000010 "
b10000100010010000000100101000011 !
b10000000010010000000100101000011 !
b10000000011010000000100101000011 !
b100001111000111111001000000010 "
b100001111000111111101000000010 "
b100001111000111111111000000010 "
b100001111000111111110000000010 "
b10010000011010000000100101000011 !
b10010000011010000100100101000011 !
b10010000011110000100100101000011 !
b100001111010111111110000000010 "
b10011000011110000100100101000011 !
b1100001111010111111110000000010 "
b10011000011110001100100101000011 !
b11100001111010111111110000000010 "
b11101001111010111111110000000010 "
b11101001111010011111110000000010 "
b11000011110001100100101000011 !
b11101001111011011111110000000010 "
b11000011100001100100101000011 !
b11000011100011100100101000011 !
b11000011100011100100101010011 !
1n
1s
0y
1|
0!!
1'!
1*!
1/!
02!
15!
18!
0<!
1?!
1J!
1N!
1Q!
0T!
0Y!
0]!
0_!
0h!
0o!
0p
0r
1x
1{
0~
0)!
1-!
10!
13!
06!
1>!
1A!
1D!
0K!
0S!
0`!
1c!
0f!
1n!
0q
0t
1z
1}
0"!
0+!
11!
14!
07!
1@!
0L!
0U!
0a!
1p!
1.!
1C!
1F!
1d!
0g!
0j
1i
1_
1^
1W
1m
0h
0d
0a
1]
0Z
1Y
1X
0V
0S
1R
1Q
0O
0N
0$
0%
1'
1(
0)
0,
1.
1/
00
13
07
0:
0>
1C
1-
14
15
1?
0@
#5000000
b11000011100011100100100010011 !
b111000011100011100100100010011 !
b111010011100011100100100010011 !
b111010011100011100100000010011 !
b11001001111011011111110000000010 "
b111010011100011100100000010001 !
b11001001111011011011110000000010 "
b11001001101011011011110000000010 "
b11001001101011011011110000000000 "
b11001001101011011011110000010000 "
b111011011100011100100000010001 !
b11001011101011011011110000010000 "
b11001011101011011011110000011000 "
b111011111100011100100000010001 !
b11001011101111011011110000011000 "
b111011111100011101100000010001 !
b111011111100011101100000010000 !
b1111011111100011101100000010000 !
b11001010101111011011110000011000 "
b11001110101111011011110000011000 "
b11001110100111011011110000011000 "
b11011110100111011011110000011000 "
b11011110100111011011110000111000 "
b1111011110100011101100000010000 !
b11011110100111011011111000111000 "
b1111011110100011001100000010000 !
b1111011110000011001100000010000 !
b11011110100101011011111000111000 "
b1110011110000011001100000010000 !
b10011110100101011011111000111000 "
b1110011110000010001100000010000 !
b10011110100101111011111000111000 "
b11110011110000010001100000010000 !
b11110011110010010001100000010000 !
1p
1r
1v
0{
1#!
1&!
1)!
00!
03!
16!
0A!
0D!
1K!
0W!
0\!
0l!
0n!
0s
0u
1y
1!!
1$!
0'!
0,!
0/!
12!
05!
1<!
0E!
1T!
1_!
1b!
1e!
0k!
1q
1t
1w
0}
1%!
1(!
1+!
01!
04!
17!
0C!
0F!
1L!
0X!
0^!
0m!
0p!
0m
0l
0g
0e
1a
0_
0^
1Z
0Y
0X
1V
1U
1T
0R
1P
1O
1N
1$
1%
1&
0(
1*
1+
1,
0.
0/
10
04
05
17
0;
0=
0B
0C
#5500000
b11110011110010110001100000010000 !
b11110011110011110001100000010000 !
b10011110100101111001111000111000 "
b10011110100101111001111100111000 "
b11110011110011110001000000010000 !
b11110011110011110001000010010000 !
b10011110100101111001111100111100 "
b10011110000101111001111100111100 "
b10011110000101101001111100111100 "
b11110011110011110001000010110000 !
b10011110000101101001111101111100 "
b11110011100011110001000010110000 !
b10011110000101101000111101111100 "
b10011110000101101000101101111100 "
b10011110000100101000101101111100 "
b11110011100011100001000010110000 !
b11110011100011100001000011110000 !
b11110011100011100001000111110000 !
b10111110000100101000101101111100 "
b11110011100011100001000111110010 !
b10111110000100101000101101101100 "
b11110010100011100001000111110010 !
b10111100000100101000101101101100 "
b10111100000000101000101101101100 "
b11110010100011100000000111110010 !
b11110010100011100000000111110011 !
b10111000000000101000101101101100 "
b10111000001000101000101101101100 "
b10111000001000101000101101001100 "
b11110010101011100000000111110011 !
b10111000001000101000100101001100 "
b11110010101011100100000111110011 !
b11110010101111100100000111110011 !
b10111000001000001000100101001100 "
b1110010101111100100000111110011 !
b1110010101101100100000111110011 !
0p
0&!
0-!
10!
13!
06!
19!
1;!
0>!
1D!
0K!
0M!
1W!
1Z!
1\!
1`!
1l!
1n!
1u
0!!
0$!
0*!
1/!
02!
08!
0<!
0?!
0G!
0J!
0Q!
0T!
1V!
1]!
0_!
0b!
1h!
0q
0(!
0.!
11!
14!
07!
1:!
1=!
0@!
1F!
0L!
0O!
1X!
1[!
1^!
1a!
1m!
1p!
1m
1l
1h
1g
1f
1e
0b
0a
1_
0]
1\
1[
0Z
1Y
1X
0W
0U
0N
0$
0+
0-
1.
1/
00
11
12
03
15
07
08
1;
1<
1=
1>
1B
1C
#6000000
b1110010101101100100010111110011 !
b1110010101101100100010111110111 !
b10111000001000000000100101001100 "
b1110010101101100100010111111111 !
b10111000001000000000100111001100 "
b10111000001000000000000111001100 "
b1110010101101100100010111101111 !
b1110000101101100100010111101111 !
b10111000011000000000000111001100 "
b10111000011000000000000111000100 "
b1110000001101100100010111101111 !
b10111001011000000000000111000100 "
b10111001011010000000000111000100 "
b10111001011010000010000111000100 "
b1110000001101100100010101101111 !
b10111001011010000010000111000000 "
b10111001111010000010000111000000 "
b10111001111010010010000111000000 "
b10111001111010010010000110000000 "
b10111001111010010011000110000000 "
b10111001111010010011010110000000 "
b1110000001101100100010101101101 !
b10111001111010010011010110010000 "
b1110001001101100100010101101101 !
b10111011111010010011010110010000 "
b1110001001101100100010101101100 !
b10111011110010010011010110010000 "
b10111011110010010011010110110000 "
b10111011110010010011011110110000 "
b1110001001001100100010101101100 !
b10111011110010110011011110110000 "
b11110001001001100100010101101100 !
b11110001001011100100010101101100 !
1p
0#!
1&!
0)!
03!
16!
1P!
0Z!
0c!
1f!
1i!
0l!
0n!
1$!
1'!
1*!
1,!
0/!
15!
1<!
1?!
0B!
1G!
1J!
0N!
1Q!
1T!
1Y!
0]!
1_!
1b!
0e!
0h!
1q
0%!
1(!
0+!
04!
17!
1R!
0[!
0d!
1g!
1j!
0m!
0p!
0m
0l
1k
1j
0i
0f
1c
1Z
0Y
0V
1U
0T
1N
1$
0*
1+
0,
0/
10
19
0<
0?
1@
1A
0B
0C
#6500000
b11110001001011100110010101101100 !
1#
b10111011110010110011011110110001 "
b11110001001011100110011101101100 !
b111011110010110011011110110001 "
b110011110010110011011110110001 "
b11010001001011100110011101101100 !
b110011110010110011011110110011 "
b10010001001011100110011101101100 !
b10011001001011100110011101101100 !
b10011001001011101110011101101100 !
b10011001001011001110011101101100 !
b110011110010110011011010110011 "
b10011001001011001110111101101100 !
b10011001001011001110111101001100 !
b10011001011011001110111101001100 !
b110011110011110011011010110011 "
b10011001011011011110111101001100 !
b10011001011011011110111001001100 !
b10011110011110011011010110011 "
b10011110111110011011010110011 "
b10011001011011011111111001001100 !
b10011001011011011111101001001100 !
b10011110111111011011010110011 "
b10011001011011011111101001011100 !
b10011100111111011011010110011 "
b10011100111111011011010111011 "
b10011001111011011111101001011100 !
b10011001111011011111101011011100 !
b10011000111111011011010111011 "
b10011000111101011011010111011 "
b10011000111101010011010111011 "
b10011000111101010011010101011 "
b10011001111101010011010101011 "
b10011001111101010011010001011 "
b10011001111111011111101011011100 !
b11001111111011111101011011100 !
0p
0r
0v
1{
1)!
1-!
13!
0;!
1>!
1A!
1H!
1K!
1M!
0P!
1S!
0W!
1Z!
0`!
1c!
0n
0u
0|
0*!
0,!
1/!
12!
18!
0?!
1B!
0J!
0V!
0_!
0b!
1e!
1k!
1o!
1o
0q
0t
0w
14!
1C!
1I!
1U!
0X!
1[!
0a!
1m!
1p!
0j!
0^!
0F!
1%!
1T
0_
0g
0k
1m
1l
0h
1f
0e
1d
1`
1^
1Y
0P
0O
0N
0$
0%
0&
1/
14
16
1:
0;
1<
0>
1B
1C
0A
0=
05
1*
